{
    "key": "group_596f7b6a11ca1",
    "title": "Group: Recent Posts — To Clone",
    "location": [
        [
            {
                "param": "post_type",
                "operator": "==",
                "value": "post"
            }
        ]
    ],
    "menu_order": 0,
    "position": "normal",
    "style": "default",
    "label_placement": "top",
    "instruction_placement": "label",
    "hide_on_screen": "",
    "active": 0,
    "description": "",
    "modified": 1526423354,
    "fields": [
        {
            "key": "field_596f7b6e92382",
            "label": "Block Content",
            "name": "",
            "type": "tab",
            "instructions": "",
            "required": 0,
            "conditional_logic": 0,
            "wrapper": {
                "width": "",
                "class": "",
                "id": ""
            },
            "placement": "top",
            "endpoint": 0
        },
        {
            "key": "field_5980acbeef9f0",
            "label": "Title",
            "name": "title",
            "type": "text",
            "instructions": "Optional. Give this block a title.",
            "required": 0,
            "conditional_logic": 0,
            "wrapper": {
                "width": "",
                "class": "",
                "id": ""
            },
            "default_value": "",
            "placeholder": "Recent Posts",
            "prepend": "",
            "append": "",
            "maxlength": ""
        },
        {
            "key": "field_596f7b9d92384",
            "label": "Number of Posts",
            "name": "number_of_posts",
            "type": "number",
            "instructions": "Enter the number of posts you would like to display.",
            "required": 0,
            "conditional_logic": 0,
            "wrapper": {
                "width": "",
                "class": "",
                "id": ""
            },
            "default_value": 3,
            "placeholder": "",
            "prepend": "",
            "append": "",
            "min": "",
            "max": "",
            "step": ""
        },
        {
            "key": "field_596f7bbc92385",
            "label": "Categories",
            "name": "categories",
            "type": "taxonomy",
            "instructions": "Select the categories you would like to display posts from.",
            "required": 0,
            "conditional_logic": 0,
            "wrapper": {
                "width": "",
                "class": "",
                "id": ""
            },
            "taxonomy": "category",
            "field_type": "multi_select",
            "allow_null": 0,
            "add_term": 0,
            "save_terms": 0,
            "load_terms": 0,
            "return_format": "id",
            "multiple": 0
        },
        {
            "key": "field_596f7be692386",
            "label": "Tags",
            "name": "tags",
            "type": "taxonomy",
            "instructions": "Select the tags you would like to display posts from.",
            "required": 0,
            "conditional_logic": 0,
            "wrapper": {
                "width": "",
                "class": "",
                "id": ""
            },
            "taxonomy": "post_tag",
            "field_type": "multi_select",
            "allow_null": 0,
            "add_term": 0,
            "save_terms": 0,
            "load_terms": 0,
            "return_format": "id",
            "multiple": 0
        }
    ]
}