<?xml version="1.0" encoding="UTF-8"?>
<svg width="1192px" height="157px" viewBox="0 0 1192 157" version="1.1" xmlns="http://www.w3.org/2000/svg" xmlns:xlink="http://www.w3.org/1999/xlink">
    <!-- Generator: Sketch 48.2 (47327) - http://www.bohemiancoding.com/sketch -->
    <title>BG</title>
    <desc>Created with Sketch.</desc>
    <defs>
        <linearGradient x1="25.2085408%" y1="23.7264828%" x2="100%" y2="100%" id="linearGradient-1">
            <stop stop-color="#FF7885" offset="0%"></stop>
            <stop stop-color="#BC48FF" offset="100%"></stop>
        </linearGradient>
        <filter x="0.0%" y="0.0%" width="100.0%" height="100.0%" filterUnits="objectBoundingBox" id="filter-2">
            <feGaussianBlur stdDeviation="0" in="SourceGraphic"></feGaussianBlur>
        </filter>
        <linearGradient x1="0%" y1="0%" x2="101.999998%" y2="100.999999%" id="linearGradient-3">
            <stop stop-color="#3023AE" offset="0%"></stop>
            <stop stop-color="#C86DD7" offset="100%"></stop>
        </linearGradient>
        <linearGradient x1="25.2085408%" y1="23.7264828%" x2="100%" y2="100%" id="linearGradient-4">
            <stop stop-color="#78E4FF" offset="0%"></stop>
            <stop stop-color="#FF48FA" offset="100%"></stop>
        </linearGradient>
        <linearGradient x1="56.6909927%" y1="0%" x2="-3.31320455%" y2="124.720016%" id="linearGradient-5">
            <stop stop-color="#FFDB78" offset="0%"></stop>
            <stop stop-color="#FF48FA" offset="100%"></stop>
        </linearGradient>
        <filter x="-20.0%" y="-20.0%" width="140.0%" height="140.0%" filterUnits="objectBoundingBox" id="filter-6">
            <feGaussianBlur stdDeviation="1" in="SourceGraphic"></feGaussianBlur>
        </filter>
    </defs>
    <g id="Section-/-What-We-Do-/-3" stroke="none" stroke-width="1" fill="none" fill-rule="evenodd" transform="translate(-13.000000, -1.000000)" opacity="0.210824275">
        <g id="BG">
            <rect id="Rectangle-3" fill-opacity="0" fill="#FFFFFF" x="0" y="0" width="1280" height="207"></rect>
            <path d="M638.165387,49 C641.764829,49 644.95813,47.31425 647,44.708625 L638.165387,38 L638.165387,27 C631.999302,27 627,31.92525 627,38 C627,44.07475 631.999302,49 638.165387,49 Z M637.086935,29 L637.086935,37.9541245 C637.086935,38.3547275 637.281021,38.7333621 637.611237,38.9776007 L645,44.438725 C643.249179,46.0799052 640.918794,47 638.434757,47 C633.232162,47 629,42.9422787 629,37.9541245 C629,33.4053414 632.520512,29.6293345 637.086935,29 Z M640,27 L640,37.5238796 L647.759698,44 C648.547623,42.3747188 649,40.5317529 649,38.5696487 C649,32.7627617 645.109283,27.9604603 640,27 Z" id="Shape" fill="#FF0097" fill-rule="nonzero"></path>
            <path d="M571.021593,56.6802821 C569.89866,55.5594699 568.488366,55.4650968 567.507523,56.4459401 C566.52668,57.425723 566.619992,58.8381373 567.740805,59.96001 L573.810369,66.0295742 C574.017141,66.2363465 574.353279,66.2363465 574.560051,66.0295742 C574.766824,65.8228018 574.766824,65.4866641 574.560051,65.2798918 L568.490487,59.2103276 C567.946517,58.6663572 567.599775,57.8519922 568.256145,57.1956225 C568.911454,56.5392528 569.72688,56.8870545 570.27085,57.4310249 L577.019052,64.1781662 C578.954229,66.1154642 579.436698,67.0082967 578.284074,68.1619804 C577.117666,69.3273283 575.881274,69.0389073 574.019262,67.1779561 L566.522438,59.6790116 C565.311494,58.4680678 564.463198,56.4904757 566.054815,54.899919 C567.944396,53.0103377 570.102251,54.8681079 570.717266,55.4841835 L577.605437,62.3734146 C577.812209,62.580187 578.148347,62.580187 578.355119,62.3734146 C578.561892,62.1666422 578.561892,61.8305046 578.355119,61.6237322 L571.466949,54.7345012 C569.38438,52.6519323 567.022933,52.4292544 565.304072,54.1502367 C563.567184,55.8860642 563.75487,58.4097474 565.772756,60.428694 L573.27064,67.9265781 C573.907923,68.5638611 575.272621,69.9274983 576.84197,69.9274983 C577.547117,69.9274983 578.294678,69.6507415 579.034817,68.9106024 C581.141775,66.8025847 579.192813,64.8515019 577.769794,63.4274235 L571.021593,56.6802821 Z" id="Shape" fill="#4A90E2" fill-rule="nonzero"></path>
            <path d="M489.829043,71.4891413 C489.878765,70.7468726 489.908953,70.1448892 489.924935,69.7844094 C489.944468,69.301402 489.766892,68.830825 489.433048,68.4809998 C489.099205,68.1311746 488.633955,67.934065 488.150948,67.934065 L468.617561,67.934065 C468.134554,67.934065 467.67108,68.1311746 467.335461,68.4809998 C466.999842,68.830825 466.824041,69.301402 466.843575,69.7844094 C466.941242,72.1301916 467.601825,83.9869572 470.984653,87.0146321 C471.309617,87.3058571 471.732249,87.4674515 472.169086,87.4674515 L484.599423,87.4674515 C485.036261,87.4674515 485.458892,87.3058571 485.783857,87.0146321 C486.843987,86.0645992 487.637753,84.2479942 488.229081,82.1277339 C489.108084,82.1241824 489.715395,82.1224066 489.786425,82.1224066 C492.806997,82.1224066 495.255773,79.9204612 495.255773,76.8039982 C495.253998,72.5723564 491.595927,71.5051232 489.829043,71.4891413 Z M484.599423,85.6916891 L472.169086,85.6916891 C469.173375,83.0102878 468.617561,69.7098274 468.617561,69.7098274 L488.150948,69.7098274 C488.150948,69.7098274 487.595134,83.0102878 484.599423,85.6916891 Z M489.784649,80.3466442 L489.225284,80.34842 C489.065466,80.34842 488.875459,80.3501957 488.660592,80.3501957 C489.189769,77.919177 489.50763,75.3247881 489.690534,73.2613522 L489.784649,73.2613522 C489.935589,73.2613522 493.478235,73.3021947 493.478235,76.8039982 C493.478235,78.8567796 491.924443,80.3466442 489.784649,80.3466442 Z" id="Shape" fill="#F5A623" fill-rule="nonzero" transform="translate(481.048939, 77.700758) rotate(24.000000) translate(-481.048939, -77.700758) "></path>
            <path d="M713,42 C706.384,42 701,47.384 701,54 C701,57.868 702.88,61.52 706.032,63.77 C706.08,63.804 706.13,63.836 706.18,63.866 C706.912,64.296 706.984,65.682 706.968,65.936 C706.966,65.978 706.964,66.02 706.964,66.06 L706.964,70 C706.964,70.752 707.384,71.438 708.054,71.78 L712.09,73.842 C712.376,73.988 712.688,74.062 713,74.062 C713.31,74.062 713.618,73.99 713.902,73.848 L717.986,71.786 C718.66,71.446 719.084,70.756 719.084,70 L719.084,66.084 C719.084,64.11 720.29,63.458 720.302,63.452 C720.462,63.378 720.61,63.282 720.744,63.168 C723.448,60.88 725,57.54 725,54 C725,47.384 719.616,42 713,42 Z M708.964,66.062 C708.964,66.062 708.964,66.022 708.966,66 L717.09,66 C717.09,66.03 717.082,66.052 717.082,66.084 C717.082,66.87 717.082,67.492 717.082,68 L708.964,68 L708.964,66.062 Z M713,72.062 L708.966,70 L717.084,70 L713,72.062 Z M719.452,61.64 C719.452,61.64 718.112,62.27 717.448,64 L708.644,64 C708.396,63.308 707.966,62.596 707.194,62.142 C704.656,60.33 703,57.358 703,54 C703,48.478 707.478,44 713,44 C718.522,44 723,48.478 723,54 C723,57.064 721.622,59.806 719.452,61.64 Z M714,46 C713.448,46 713,46.448 713,47 C713,47.552 713.448,48 714,48 C716.25,48 719,50.046 719,53.094 C719,53.646 719.448,54.094 720,54.094 C720.552,54.094 721,53.646 721,53.094 C721,48.532 717.438,46 714,46 Z" id="Shape" fill="#F8E71C" fill-rule="nonzero"></path>
            <path d="M805.292273,68 C805.283042,68 805.273812,68 805.264582,68 C805.259966,68 805.255351,68 805.250736,68 C805.249198,68 805.247659,68 805.246121,68 C805.238429,68 805.232275,68 805.226122,68 C805.223045,68 805.219968,68 805.216891,68 L797.081846,68 C796.846471,68.0123072 796.311109,68.3799842 796.241881,68.449212 L786.449981,78.2395732 C785.850006,78.8395482 785.850006,79.8118153 786.449981,80.4117903 L787.671469,81.6332779 L786.449981,82.8547654 C785.850006,83.4547404 785.850006,84.4270076 786.449981,85.0269826 L793.597376,92.174377 C793.897363,92.4743645 794.289654,92.623589 794.683484,92.623589 C795.075776,92.623589 795.469605,92.4743645 795.769593,92.174377 L805.559954,82.3824774 C805.63072,82.3132495 805.999936,81.8394231 805.999936,81.5440508 L805.999936,68.7645835 C806.021473,68.3353706 805.713794,68 805.292273,68 Z M804.478461,81.2840617 C804.473845,81.2917537 804.470769,81.2963689 804.472307,81.2963689 C804.472307,81.2963689 804.472307,81.2963689 804.472307,81.2963689 L794.685023,91.0882684 L787.537628,83.9439508 L788.759116,82.7224633 L793.597376,87.5607231 C793.897363,87.8607106 794.289654,88.0099352 794.683484,88.0099352 C795.075776,88.0099352 795.469605,87.8607106 795.769593,87.5607231 L804.478461,78.8518554 L804.478461,81.2840617 Z M804.478461,74.1535897 L804.478461,76.6688694 C804.473845,76.6765614 804.470769,76.6811766 804.472307,76.6811766 C804.472307,76.6811766 804.472307,76.6811766 804.472307,76.6811766 L794.685023,86.4730762 L787.537628,79.3287586 L797.263377,69.6045485 C797.292606,69.5830109 797.327989,69.559935 797.363373,69.5383974 L804.478461,69.5383974 L804.478461,74.1535897 Z M801.401666,71.8398399 C801.401666,72.2646567 801.746048,72.6090387 802.170864,72.6090387 C802.595681,72.6090387 802.940063,72.2646567 802.940063,71.8398399 C802.940063,71.4150232 802.595681,71.0706412 802.170864,71.0706412 C801.746048,71.0706412 801.401666,71.4150232 801.401666,71.8398399 Z" id="Shape" fill="#9D60D4" fill-rule="nonzero"></path>
            <path d="M614.292273,100 C614.283042,100 614.273812,100 614.264582,100 C614.259966,100 614.255351,100 614.250736,100 C614.249198,100 614.247659,100 614.246121,100 C614.238429,100 614.232275,100 614.226122,100 C614.223045,100 614.219968,100 614.216891,100 L606.081846,100 C605.846471,100.012307 605.311109,100.379984 605.241881,100.449212 L595.449981,110.239573 C594.850006,110.839548 594.850006,111.811815 595.449981,112.41179 L596.671469,113.633278 L595.449981,114.854765 C594.850006,115.45474 594.850006,116.427008 595.449981,117.026983 L602.597376,124.174377 C602.897363,124.474364 603.289654,124.623589 603.683484,124.623589 C604.075776,124.623589 604.469605,124.474364 604.769593,124.174377 L614.559954,114.382477 C614.63072,114.31325 614.999936,113.839423 614.999936,113.544051 L614.999936,100.764584 C615.021473,100.335371 614.713794,100 614.292273,100 Z M613.478461,113.284062 C613.473845,113.291754 613.470769,113.296369 613.472307,113.296369 C613.472307,113.296369 613.472307,113.296369 613.472307,113.296369 L603.685023,123.088268 L596.537628,115.943951 L597.759116,114.722463 L602.597376,119.560723 C602.897363,119.860711 603.289654,120.009935 603.683484,120.009935 C604.075776,120.009935 604.469605,119.860711 604.769593,119.560723 L613.478461,110.851855 L613.478461,113.284062 Z M613.478461,106.15359 L613.478461,108.668869 C613.473845,108.676561 613.470769,108.681177 613.472307,108.681177 C613.472307,108.681177 613.472307,108.681177 613.472307,108.681177 L603.685023,118.473076 L596.537628,111.328759 L606.263377,101.604549 C606.292606,101.583011 606.327989,101.559935 606.363373,101.538397 L613.478461,101.538397 L613.478461,106.15359 Z M610.401666,103.83984 C610.401666,104.264657 610.746048,104.609039 611.170864,104.609039 C611.595681,104.609039 611.940063,104.264657 611.940063,103.83984 C611.940063,103.415023 611.595681,103.070641 611.170864,103.070641 C610.746048,103.070641 610.401666,103.415023 610.401666,103.83984 Z" id="Shape-Copy" fill="#50E3C2" fill-rule="nonzero" transform="translate(605.000500, 112.311795) scale(-1, 1) translate(-605.000500, -112.311795) "></path>
            <circle id="Oval" fill="url(#linearGradient-1)" filter="url(#filter-2)" cx="743.5" cy="133.5" r="7.5"></circle>
            <circle id="Oval-Copy" fill="url(#linearGradient-3)" cx="490.5" cy="12.5" r="9.5"></circle>
            <rect id="Rectangle-Copy" fill="url(#linearGradient-4)" transform="translate(547.000000, 127.000000) rotate(45.000000) translate(-547.000000, -127.000000) " x="541" y="121" width="12" height="12"></rect>
            <rect id="Rectangle-Copy" fill="url(#linearGradient-5)" transform="translate(763.000000, 39.000000) rotate(45.000000) translate(-763.000000, -39.000000) " x="757" y="33" width="12" height="12" rx="2"></rect>
            <path d="M253.165387,45 C256.764829,45 259.95813,43.31425 262,40.708625 L253.165387,34 L253.165387,23 C246.999302,23 242,27.92525 242,34 C242,40.07475 246.999302,45 253.165387,45 Z M252.086935,25 L252.086935,33.9541245 C252.086935,34.3547275 252.281021,34.7333621 252.611237,34.9776007 L260,40.438725 C258.249179,42.0799052 255.918794,43 253.434757,43 C248.232162,43 244,38.9422787 244,33.9541245 C244,29.4053414 247.520512,25.6293345 252.086935,25 Z M255,23 L255,33.5238796 L262.759698,40 C263.547623,38.3747188 264,36.5317529 264,34.5696487 C264,28.7627617 260.109283,23.9604603 255,23 Z" id="Shape" fill="#FF0097" fill-rule="nonzero" transform="translate(253.000000, 34.000000) scale(-1, 1) translate(-253.000000, -34.000000) "></path>
            <path d="M317.9402,52.6802821 C316.817267,51.5594699 315.406974,51.4650968 314.42613,52.4459401 C313.445287,53.425723 313.5386,54.8381373 314.659412,55.96001 L320.728976,62.0295742 C320.935749,62.2363465 321.271886,62.2363465 321.478659,62.0295742 C321.685431,61.8228018 321.685431,61.4866641 321.478659,61.2798918 L315.409094,55.2103276 C314.865124,54.6663572 314.518383,53.8519922 315.174752,53.1956225 C315.830062,52.5392528 316.645487,52.8870545 317.189458,53.4310249 L323.937659,60.1781662 C325.872837,62.1154642 326.355305,63.0082967 325.202682,64.1619804 C324.036274,65.3273283 322.799881,65.0389073 320.937869,63.1779561 L313.441046,55.6790116 C312.230102,54.4680678 311.381805,52.4904757 312.973422,50.899919 C314.863003,49.0103377 317.020859,50.8681079 317.635874,51.4841835 L324.524045,58.3734146 C324.730817,58.580187 325.066955,58.580187 325.273727,58.3734146 C325.480499,58.1666422 325.480499,57.8305046 325.273727,57.6237322 L318.385556,50.7345012 C316.302987,48.6519323 313.941541,48.4292544 312.222679,50.1502367 C310.485791,51.8860642 310.673477,54.4097474 312.691363,56.428694 L320.189247,63.9265781 C320.82653,64.5638611 322.191228,65.9274983 323.760577,65.9274983 C324.465724,65.9274983 325.213286,65.6507415 325.953425,64.9106024 C328.060382,62.8025847 326.11142,60.8515019 324.688402,59.4274235 L317.9402,52.6802821 Z" id="Shape" fill="#4A90E2" fill-rule="nonzero" transform="translate(318.959304, 57.463749) scale(-1, 1) translate(-318.959304, -57.463749) "></path>
            <path d="M418.731165,67.4891413 C418.780886,66.7468726 418.811074,66.1448892 418.827056,65.7844094 C418.846589,65.301402 418.669013,64.830825 418.33517,64.4809998 C418.001326,64.1311746 417.536077,63.934065 417.053069,63.934065 L397.519683,63.934065 C397.036675,63.934065 396.573201,64.1311746 396.237582,64.4809998 C395.901963,64.830825 395.726163,65.301402 395.745696,65.7844094 C395.843363,68.1301916 396.503947,79.9869572 399.886774,83.0146321 C400.211739,83.3058571 400.63437,83.4674515 401.071208,83.4674515 L413.501544,83.4674515 C413.938382,83.4674515 414.361014,83.3058571 414.685978,83.0146321 C415.746108,82.0645992 416.539874,80.2479942 417.131203,78.1277339 C418.010205,78.1241824 418.617516,78.1224066 418.688546,78.1224066 C421.709118,78.1224066 424.157895,75.9204612 424.157895,72.8039982 C424.156119,68.5723564 420.498048,67.5051232 418.731165,67.4891413 Z M413.501544,81.6916891 L401.071208,81.6916891 C398.075496,79.0102878 397.519683,65.7098274 397.519683,65.7098274 L417.053069,65.7098274 C417.053069,65.7098274 416.497256,79.0102878 413.501544,81.6916891 Z M418.686771,76.3466442 L418.127406,76.34842 C417.967587,76.34842 417.77758,76.3501957 417.562713,76.3501957 C418.09189,73.919177 418.409752,71.3247881 418.592655,69.2613522 L418.686771,69.2613522 C418.837711,69.2613522 422.380357,69.3021947 422.380357,72.8039982 C422.380357,74.8567796 420.826564,76.3466442 418.686771,76.3466442 Z" id="Shape" fill="#F5A623" fill-rule="nonzero" transform="translate(409.951061, 73.700758) scale(-1, 1) rotate(24.000000) translate(-409.951061, -73.700758) "></path>
            <path d="M178,38 C171.384,38 166,43.384 166,50 C166,53.868 167.88,57.52 171.032,59.77 C171.08,59.804 171.13,59.836 171.18,59.866 C171.912,60.296 171.984,61.682 171.968,61.936 C171.966,61.978 171.964,62.02 171.964,62.06 L171.964,66 C171.964,66.752 172.384,67.438 173.054,67.78 L177.09,69.842 C177.376,69.988 177.688,70.062 178,70.062 C178.31,70.062 178.618,69.99 178.902,69.848 L182.986,67.786 C183.66,67.446 184.084,66.756 184.084,66 L184.084,62.084 C184.084,60.11 185.29,59.458 185.302,59.452 C185.462,59.378 185.61,59.282 185.744,59.168 C188.448,56.88 190,53.54 190,50 C190,43.384 184.616,38 178,38 Z M173.964,62.062 C173.964,62.062 173.964,62.022 173.966,62 L182.09,62 C182.09,62.03 182.082,62.052 182.082,62.084 C182.082,62.87 182.082,63.492 182.082,64 L173.964,64 L173.964,62.062 Z M178,68.062 L173.966,66 L182.084,66 L178,68.062 Z M184.452,57.64 C184.452,57.64 183.112,58.27 182.448,60 L173.644,60 C173.396,59.308 172.966,58.596 172.194,58.142 C169.656,56.33 168,53.358 168,50 C168,44.478 172.478,40 178,40 C183.522,40 188,44.478 188,50 C188,53.064 186.622,55.806 184.452,57.64 Z M179,42 C178.448,42 178,42.448 178,43 C178,43.552 178.448,44 179,44 C181.25,44 184,46.046 184,49.094 C184,49.646 184.448,50.094 185,50.094 C185.552,50.094 186,49.646 186,49.094 C186,44.532 182.438,42 179,42 Z" id="Shape" fill="#F8E71C" fill-rule="nonzero" transform="translate(178.000000, 54.031000) scale(-1, 1) translate(-178.000000, -54.031000) "></path>
            <path d="M104.291273,64 C104.282042,64 104.272812,64 104.263582,64 C104.258966,64 104.254351,64 104.249736,64 C104.248198,64 104.246659,64 104.245121,64 C104.237429,64 104.231275,64 104.225122,64 C104.222045,64 104.218968,64 104.215891,64 L96.0808458,64 C95.845471,64.0123072 95.3101087,64.3799842 95.2408808,64.449212 L85.4489812,74.2395732 C84.8490063,74.8395482 84.8490063,75.8118153 85.4489812,76.4117903 L86.6704688,77.6332779 L85.4489812,78.8547654 C84.8490063,79.4547404 84.8490063,80.4270076 85.4489812,81.0269826 L92.5963756,88.174377 C92.8963631,88.4743645 93.2886545,88.623589 93.6824842,88.623589 C94.0747755,88.623589 94.4686053,88.4743645 94.7685928,88.174377 L104.558954,78.3824774 C104.62972,78.3132495 104.998936,77.8394231 104.998936,77.5440508 L104.998936,64.7645835 C105.020473,64.3353706 104.712794,64 104.291273,64 Z M103.477461,77.2840617 C103.472845,77.2917537 103.469769,77.2963689 103.471307,77.2963689 C103.471307,77.2963689 103.471307,77.2963689 103.471307,77.2963689 L93.6840226,87.0882684 L86.5366282,79.9439508 L87.7581158,78.7224633 L92.5963756,83.5607231 C92.8963631,83.8607106 93.2886545,84.0099352 93.6824842,84.0099352 C94.0747755,84.0099352 94.4686053,83.8607106 94.7685928,83.5607231 L103.477461,74.8518554 L103.477461,77.2840617 Z M103.477461,70.1535897 L103.477461,72.6688694 C103.472845,72.6765614 103.469769,72.6811766 103.471307,72.6811766 C103.471307,72.6811766 103.471307,72.6811766 103.471307,72.6811766 L93.6840226,82.4730762 L86.5366282,75.3287586 L96.2623767,65.6045485 C96.2916062,65.5830109 96.3269894,65.559935 96.3623725,65.5383974 L103.477461,65.5383974 L103.477461,70.1535897 Z M100.400666,67.8398399 C100.400666,68.2646567 100.745048,68.6090387 101.169864,68.6090387 C101.594681,68.6090387 101.939063,68.2646567 101.939063,67.8398399 C101.939063,67.4150232 101.594681,67.0706412 101.169864,67.0706412 C100.745048,67.0706412 100.400666,67.4150232 100.400666,67.8398399 Z" id="Shape" fill="#9D60D4" fill-rule="nonzero" transform="translate(94.999500, 76.311795) scale(-1, 1) translate(-94.999500, -76.311795) "></path>
            <path d="M295.291273,96 C295.282042,96 295.272812,96 295.263582,96 C295.258966,96 295.254351,96 295.249736,96 C295.248198,96 295.246659,96 295.245121,96 C295.237429,96 295.231275,96 295.225122,96 C295.222045,96 295.218968,96 295.215891,96 L287.080846,96 C286.845471,96.0123072 286.310109,96.3799842 286.240881,96.449212 L276.448981,106.239573 C275.849006,106.839548 275.849006,107.811815 276.448981,108.41179 L277.670469,109.633278 L276.448981,110.854765 C275.849006,111.45474 275.849006,112.427008 276.448981,113.026983 L283.596376,120.174377 C283.896363,120.474364 284.288654,120.623589 284.682484,120.623589 C285.074776,120.623589 285.468605,120.474364 285.768593,120.174377 L295.558954,110.382477 C295.62972,110.31325 295.998936,109.839423 295.998936,109.544051 L295.998936,96.7645835 C296.020473,96.3353706 295.712794,96 295.291273,96 Z M294.477461,109.284062 C294.472845,109.291754 294.469769,109.296369 294.471307,109.296369 C294.471307,109.296369 294.471307,109.296369 294.471307,109.296369 L284.684023,119.088268 L277.536628,111.943951 L278.758116,110.722463 L283.596376,115.560723 C283.896363,115.860711 284.288654,116.009935 284.682484,116.009935 C285.074776,116.009935 285.468605,115.860711 285.768593,115.560723 L294.477461,106.851855 L294.477461,109.284062 Z M294.477461,102.15359 L294.477461,104.668869 C294.472845,104.676561 294.469769,104.681177 294.471307,104.681177 C294.471307,104.681177 294.471307,104.681177 294.471307,104.681177 L284.684023,114.473076 L277.536628,107.328759 L287.262377,97.6045485 C287.291606,97.5830109 287.326989,97.559935 287.362373,97.5383974 L294.477461,97.5383974 L294.477461,102.15359 Z M291.400666,99.8398399 C291.400666,100.264657 291.745048,100.609039 292.169864,100.609039 C292.594681,100.609039 292.939063,100.264657 292.939063,99.8398399 C292.939063,99.4150232 292.594681,99.0706412 292.169864,99.0706412 C291.745048,99.0706412 291.400666,99.4150232 291.400666,99.8398399 Z" id="Shape-Copy" fill="#50E3C2" fill-rule="nonzero"></path>
            <circle id="Oval" fill="url(#linearGradient-1)" filter="url(#filter-6)" transform="translate(147.500000, 129.500000) scale(-1, 1) translate(-147.500000, -129.500000) " cx="147.5" cy="129.5" r="7.5"></circle>
            <circle id="Oval-Copy" fill="url(#linearGradient-1)" transform="translate(145.500000, 128.500000) scale(-1, 1) translate(-145.500000, -128.500000) " cx="145.5" cy="128.5" r="7.5"></circle>
            <circle id="Oval-Copy" fill="url(#linearGradient-3)" transform="translate(184.500000, 148.500000) scale(-1, 1) translate(-184.500000, -148.500000) " cx="184.5" cy="148.5" r="9.5"></circle>
            <rect id="Rectangle-Copy" fill="url(#linearGradient-4)" transform="translate(22.057129, 131.485281) scale(-1, 1) rotate(45.000000) translate(-22.057129, -131.485281) " x="16.057129" y="125.485281" width="12" height="12"></rect>
            <rect id="Rectangle-Copy" fill="url(#linearGradient-5)" transform="translate(128.000000, 35.000000) scale(-1, 1) rotate(45.000000) translate(-128.000000, -35.000000) " x="122" y="29" width="12" height="12" rx="2"></rect>
            <path d="M1008.16539,114 C1011.76483,114 1014.95813,112.31425 1017,109.708625 L1008.16539,103 L1008.16539,92 C1001.9993,92 997,96.92525 997,103 C997,109.07475 1001.9993,114 1008.16539,114 Z M1007.08693,94 L1007.08693,102.954124 C1007.08693,103.354728 1007.28102,103.733362 1007.61124,103.977601 L1015,109.438725 C1013.24918,111.079905 1010.91879,112 1008.43476,112 C1003.23216,112 999,107.942279 999,102.954124 C999,98.4053414 1002.52051,94.6293345 1007.08693,94 Z M1010,92 L1010,102.52388 L1017.7597,109 C1018.54762,107.374719 1019,105.531753 1019,103.569649 C1019,97.7627617 1015.10928,92.9604603 1010,92 Z" id="Shape" fill="#FF0097" fill-rule="nonzero" transform="translate(1008.000000, 103.000000) scale(-1, -1) translate(-1008.000000, -103.000000) "></path>
            <path d="M1072.9402,74.7527838 C1071.81727,73.6319715 1070.40697,73.5375985 1069.42613,74.5184418 C1068.44529,75.4982247 1068.5386,76.910639 1069.65941,78.0325116 L1075.72898,84.1020758 C1075.93575,84.3088482 1076.27189,84.3088482 1076.47866,84.1020758 C1076.68543,83.8953035 1076.68543,83.5591658 1076.47866,83.3523934 L1070.40909,77.2828292 C1069.86512,76.7388589 1069.51838,75.9244939 1070.17475,75.2681241 C1070.83006,74.6117544 1071.64549,74.9595562 1072.18946,75.5035265 L1078.93766,82.2506679 C1080.87284,84.1879659 1081.35531,85.0807983 1080.20268,86.2344821 C1079.03627,87.39983 1077.79988,87.111409 1075.93787,85.2504577 L1068.44105,77.7515133 C1067.2301,76.5405695 1066.38181,74.5629774 1067.97342,72.9724207 C1069.863,71.0828394 1072.02086,72.9406096 1072.63587,73.5566852 L1079.52404,80.4459163 C1079.73082,80.6526886 1080.06695,80.6526886 1080.27373,80.4459163 C1080.4805,80.2391439 1080.4805,79.9030062 1080.27373,79.6962339 L1073.38556,72.8070028 C1071.30299,70.724434 1068.94154,70.501756 1067.22268,72.2227383 C1065.48579,73.9585658 1065.67348,76.4822491 1067.69136,78.5011956 L1075.18925,85.9990797 C1075.82653,86.6363628 1077.19123,88 1078.76058,88 C1079.46572,88 1080.21329,87.7232431 1080.95342,86.9831041 C1083.06038,84.8750864 1081.11142,82.9240035 1079.6884,81.4999251 L1072.9402,74.7527838 Z" id="Shape" fill="#4A90E2" fill-rule="nonzero" transform="translate(1073.959304, 79.536251) scale(-1, -1) translate(-1073.959304, -79.536251) "></path>
            <path d="M1173.73116,57.0876249 C1173.78089,56.3453562 1173.81107,55.7433727 1173.82706,55.3828929 C1173.84659,54.8998856 1173.66901,54.4293085 1173.33517,54.0794833 C1173.00133,53.7296581 1172.53608,53.5325485 1172.05307,53.5325485 L1152.51968,53.5325485 C1152.03668,53.5325485 1151.5732,53.7296581 1151.23758,54.0794833 C1150.90196,54.4293085 1150.72616,54.8998856 1150.7457,55.3828929 C1150.84336,57.7286751 1151.50395,69.5854407 1154.88677,72.6131156 C1155.21174,72.9043406 1155.63437,73.065935 1156.07121,73.065935 L1168.50154,73.065935 C1168.93838,73.065935 1169.36101,72.9043406 1169.68598,72.6131156 C1170.74611,71.6630827 1171.53987,69.8464778 1172.1312,67.7262175 C1173.01021,67.7226659 1173.61752,67.7208902 1173.68855,67.7208902 C1176.70912,67.7208902 1179.15789,65.5189448 1179.15789,62.4024818 C1179.15612,58.1708399 1175.49805,57.1036067 1173.73116,57.0876249 Z M1168.50154,71.2901726 L1156.07121,71.2901726 C1153.0755,68.6087714 1152.51968,55.3083109 1152.51968,55.3083109 L1172.05307,55.3083109 C1172.05307,55.3083109 1171.49726,68.6087714 1168.50154,71.2901726 Z M1173.68677,65.9451278 L1173.12741,65.9469035 C1172.96759,65.9469035 1172.77758,65.9486793 1172.56271,65.9486793 C1173.09189,63.5176605 1173.40975,60.9232717 1173.59266,58.8598357 L1173.68677,58.8598357 C1173.83771,58.8598357 1177.38036,58.9006783 1177.38036,62.4024818 C1177.38036,64.4552631 1175.82656,65.9451278 1173.68677,65.9451278 Z" id="Shape" fill="#F5A623" fill-rule="nonzero" transform="translate(1164.951061, 63.299242) scale(-1, -1) rotate(24.000000) translate(-1164.951061, -63.299242) "></path>
            <path d="M933,66.938 C926.384,66.938 921,72.322 921,78.938 C921,82.806 922.88,86.458 926.032,88.708 C926.08,88.742 926.13,88.774 926.18,88.804 C926.912,89.234 926.984,90.62 926.968,90.874 C926.966,90.916 926.964,90.958 926.964,90.998 L926.964,94.938 C926.964,95.69 927.384,96.376 928.054,96.718 L932.09,98.78 C932.376,98.926 932.688,99 933,99 C933.31,99 933.618,98.928 933.902,98.786 L937.986,96.724 C938.66,96.384 939.084,95.694 939.084,94.938 L939.084,91.022 C939.084,89.048 940.29,88.396 940.302,88.39 C940.462,88.316 940.61,88.22 940.744,88.106 C943.448,85.818 945,82.478 945,78.938 C945,72.322 939.616,66.938 933,66.938 Z M928.964,91 C928.964,91 928.964,90.96 928.966,90.938 L937.09,90.938 C937.09,90.968 937.082,90.99 937.082,91.022 C937.082,91.808 937.082,92.43 937.082,92.938 L928.964,92.938 L928.964,91 Z M933,97 L928.966,94.938 L937.084,94.938 L933,97 Z M939.452,86.578 C939.452,86.578 938.112,87.208 937.448,88.938 L928.644,88.938 C928.396,88.246 927.966,87.534 927.194,87.08 C924.656,85.268 923,82.296 923,78.938 C923,73.416 927.478,68.938 933,68.938 C938.522,68.938 943,73.416 943,78.938 C943,82.002 941.622,84.744 939.452,86.578 Z M934,70.938 C933.448,70.938 933,71.386 933,71.938 C933,72.49 933.448,72.938 934,72.938 C936.25,72.938 939,74.984 939,78.032 C939,78.584 939.448,79.032 940,79.032 C940.552,79.032 941,78.584 941,78.032 C941,73.47 937.438,70.938 934,70.938 Z" id="Shape" fill="#F8E71C" fill-rule="nonzero" transform="translate(933.000000, 82.969000) scale(-1, -1) translate(-933.000000, -82.969000) "></path>
            <path d="M859.291273,48.376411 C859.237429,48.376411 859.231275,48.376411 859.225122,48.376411 C859.22307,48.376411 856.508312,48.376411 851.080846,48.376411 C850.845471,48.3887182 850.310109,48.7563951 850.240881,48.825623 L840.448981,58.6159842 C839.849006,59.2159592 839.849006,60.1882263 840.448981,60.7882013 L841.670469,62.0096889 L840.448981,63.2311764 C839.849006,63.8311514 839.849006,64.8034186 840.448981,65.4033936 L847.596376,72.550788 C847.896363,72.8507755 848.288654,73 848.682484,73 C849.074776,73 849.468605,72.8507755 849.768593,72.550788 L859.558954,62.7588884 C859.62972,62.6896605 859.998936,62.2158341 859.998936,61.9204618 L859.998936,49.1409945 C860.020473,48.7117816 859.712794,48.376411 859.291273,48.376411 Z M858.477461,61.6604727 C858.473358,61.6686774 855.208879,64.9367464 848.684023,71.4646794 L841.536628,64.3203618 L842.758116,63.0988742 L847.596376,67.9371341 C847.896363,68.2371216 848.288654,68.3863462 848.682484,68.3863462 C849.074776,68.3863462 849.468605,68.2371216 849.768593,67.9371341 L858.477461,59.2282663 L858.477461,61.6604727 Z M858.477461,54.5300006 L858.477461,57.0452804 C858.473358,57.0534852 855.208879,60.3215541 848.684023,66.8494871 L841.536628,59.7051695 L851.262377,49.9809595 C851.291606,49.9594219 851.326989,49.936346 851.362373,49.9148084 L858.477461,49.9148084 L858.477461,54.5300006 Z M855.400666,52.2162509 C855.400666,52.6410676 855.745048,52.9854496 856.169864,52.9854496 C856.594681,52.9854496 856.939063,52.6410676 856.939063,52.2162509 C856.939063,51.7914342 856.594681,51.4470522 856.169864,51.4470522 C855.745048,51.4470522 855.400666,51.7914342 855.400666,52.2162509 Z" id="Shape" fill="#9D60D4" fill-rule="nonzero" transform="translate(849.999500, 60.688205) scale(-1, -1) translate(-849.999500, -60.688205) "></path>
            <path d="M1050.29127,16.376411 C1050.28204,16.376411 1050.27281,16.376411 1050.26358,16.376411 C1050.25897,16.376411 1050.25435,16.376411 1050.24974,16.376411 C1050.2482,16.376411 1050.24666,16.376411 1050.24512,16.376411 C1050.23743,16.376411 1050.23128,16.376411 1050.22512,16.376411 C1050.22204,16.376411 1050.21897,16.376411 1050.21589,16.376411 L1042.08085,16.376411 C1041.84547,16.3887182 1041.31011,16.7563951 1041.24088,16.825623 L1031.44898,26.6159842 C1030.84901,27.2159592 1030.84901,28.1882263 1031.44898,28.7882013 L1032.67047,30.0096889 L1031.44898,31.2311764 C1030.84901,31.8311514 1030.84901,32.8034186 1031.44898,33.4033936 L1038.59638,40.550788 C1038.89636,40.8507755 1039.28865,41 1039.68248,41 C1040.07478,41 1040.46861,40.8507755 1040.76859,40.550788 L1050.55895,30.7588884 C1050.62972,30.6896605 1050.99894,30.2158341 1050.99894,29.9204618 L1050.99894,17.1409945 C1051.02047,16.7117816 1050.71279,16.376411 1050.29127,16.376411 Z M1049.47746,29.6604727 C1049.47285,29.6681646 1049.46977,29.6727798 1049.47131,29.6727798 C1049.47131,29.6727798 1049.47131,29.6727798 1049.47131,29.6727798 L1039.68402,39.4646794 L1032.53663,32.3203618 L1033.75812,31.0988742 L1038.59638,35.9371341 C1038.89636,36.2371216 1039.28865,36.3863462 1039.68248,36.3863462 C1040.07478,36.3863462 1040.46861,36.2371216 1040.76859,35.9371341 L1049.47746,27.2282663 L1049.47746,29.6604727 Z M1049.47746,22.5300006 L1049.47746,25.0452804 C1049.47285,25.0529724 1049.46977,25.0575876 1049.47131,25.0575876 C1049.47131,25.0575876 1049.47131,25.0575876 1049.47131,25.0575876 L1039.68402,34.8494871 L1032.53663,27.7051695 L1042.26238,17.9809595 C1042.29161,17.9594219 1042.32699,17.936346 1042.36237,17.9148084 L1049.47746,17.9148084 L1049.47746,22.5300006 Z M1046.40067,20.2162509 C1046.40067,20.6410676 1046.74505,20.9854496 1047.16986,20.9854496 C1047.59468,20.9854496 1047.93906,20.6410676 1047.93906,20.2162509 C1047.93906,19.7914342 1047.59468,19.4470522 1047.16986,19.4470522 C1046.74505,19.4470522 1046.40067,19.7914342 1046.40067,20.2162509 Z" id="Shape-Copy" fill="#50E3C2" fill-rule="nonzero" transform="translate(1040.999500, 28.688205) scale(1, -1) translate(-1040.999500, -28.688205) "></path>
            <circle id="Oval-Copy" fill="url(#linearGradient-1)" transform="translate(900.500000, 8.500000) scale(-1, -1) translate(-900.500000, -8.500000) " cx="900.5" cy="8.5" r="7.5"></circle>
            <circle id="Oval-Copy" fill="url(#linearGradient-3)" transform="translate(1195.500000, 128.500000) scale(-1, -1) translate(-1195.500000, -128.500000) " cx="1195.5" cy="128.5" r="9.5"></circle>
            <rect id="Rectangle-Copy" fill="url(#linearGradient-4)" transform="translate(1099.000000, 42.000000) scale(-1, -1) rotate(45.000000) translate(-1099.000000, -42.000000) " x="1093" y="36" width="12" height="12"></rect>
            <rect id="Rectangle-Copy" fill="url(#linearGradient-5)" transform="translate(883.000000, 102.000000) scale(-1, -1) rotate(45.000000) translate(-883.000000, -102.000000) " x="877" y="96" width="12" height="12" rx="2"></rect>
        </g>
    </g>
</svg>